{
  "family": "simpleapp-api",
  "networkMode": "awsvpc",
  "containerDefinitions": [
    {
      "name": "simpleapp-api",
      "image": "487932330115.dkr.ecr.us-east-1.amazonaws.com/cosmos20/simpleapp-api:latest",
      "essential": true,
      "portMappings": [{"hostPort":8080,"protocol":"tcp","containerPort":8080}],
      "environment": [{"name":"SPRING_PROFILES_ACTIVE","value":"prod"}],
      "logConfiguration": {
        "logDriver": "awslogs",
        "options": {
          "awslogs-create-group": "true",
          "awslogs-group": "/ecs/simpleapp-api",
          "awslogs-region": "us-east-1",
          "awslogs-stream-prefix": "ecs"
        }
      }
    }
  ],
  "requiresCompatibilities": [
    "FARGATE"
  ],
  "cpu": "1024",
  "memory": "2048",
  "executionRoleArn": "arn:aws:iam::487932330115:role/ecsTaskExecutionRole"
}